{
    "auth": {
        "oneclick64c922f0": {
            "service": "Cognito",
            "providerPlugin": "awscloudformation",
            "dependsOn": []
        }
    },
    "storage": {
        "oneclickdb": {
            "service": "DynamoDB",
            "providerPlugin": "awscloudformation"
        }
    },
    "function": {
        "oneclickfunction": {
            "build": true,
            "providerPlugin": "awscloudformation",
            "service": "Lambda",
            "dependsOn": [
                {
                    "category": "storage",
                    "resourceName": "oneclickdb",
                    "attributes": [
                        "Name",
                        "Arn"
                    ],
                    "attributeEnvMap": {
                        "Name": "TABLE_NAME",
                        "Arn": "TABLE_ARN"
                    }
                }
            ]
        },
        "lambdatestbranch": {
            "build": true,
            "providerPlugin": "awscloudformation",
            "service": "Lambda"
        }
    },
    "api": {
        "oneclick": {
            "service": "API Gateway",
            "providerPlugin": "awscloudformation",
            "dependsOn": [
                {
                    "category": "function",
                    "resourceName": "lambdatestbranch",
                    "attributes": [
                        "Name",
                        "Arn"
                    ]
                }
            ]
        }
    }
}